Getting Started • CytoExploreR
…
5.5 Export Statistics

At the end of any analysis pipeline, we want to export population-level statistics for reporting. This is easily acheived using cyto_stats_compute which will compute the desired statistics for the specified populations and return a tidyverse friendly output that retains all the experiment details. This makes it easy to plot the exported statistics using other R packages, such as ggplot2.

# Compute medFI - exclude unstained control
cyto_stats_compute(gs[1:32],
                   alias = c("CD69+ CD4 T Cells",
                             "CD69+ CD8 T Cells"),
                   stat = "median",
                   channels = c("CD44", "CD69"))
#> # A tibble: 128 x 6
#>    name             OVAConc Treatment Population        Marker  MedFI
#>    <fct>            <chr>   <chr>     <chr>             <chr>   <dbl>
#>  1 Activation_1.fcs 0       Stim-A    CD69+ CD4 T Cells CD44   18695.
#>  2 Activation_1.fcs 0       Stim-A    CD69+ CD8 T Cells CD44    3523.
#>  3 Activation_1.fcs 0       Stim-A    CD69+ CD4 T Cells CD69    4315.
#>  4 Activation_1.fcs 0       Stim-A    CD69+ CD8 T Cells CD69    2579.
#>  5 Activation_2.fcs 0       Stim-A    CD69+ CD4 T Cells CD44   13892.
#>  6 Activation_2.fcs 0       Stim-A    CD69+ CD8 T Cells CD44    2559.
#>  7 Activation_2.fcs 0       Stim-A    CD69+ CD4 T Cells CD69    4298.
#>  8 Activation_2.fcs 0       Stim-A    CD69+ CD8 T Cells CD69    2783.
#>  9 Activation_3.fcs 5       Stim-A    CD69+ CD4 T Cells CD44   15815.
#> 10 Activation_3.fcs 5       Stim-A    CD69+ CD8 T Cells CD44    2826.
#> # ... with 118 more rows
…
