Compute, export and save statistics — cyto_stats_compute • CytoExploreR
…
# Compute statistics - median
cyto_stats_compute(gs,
  alias = "T Cells",
  channels = c("Alexa Fluor 488-A", "PE-A"),
  stat = "median",
  save = FALSE
)
#> # A tibble: 66 x 6
#>    name             OVAConc Treatment Population Marker  MedFI
#>    <chr>            <chr>   <chr>     <chr>      <chr>   <dbl>
#>  1 Activation_1.fcs 0       Stim-A    T Cells    CD8     1501.
#>  2 Activation_1.fcs 0       Stim-A    T Cells    Va2    17651.
#>  3 Activation_2.fcs 0       Stim-A    T Cells    CD8     2238.
#>  4 Activation_2.fcs 0       Stim-A    T Cells    Va2    18608.
#>  5 Activation_3.fcs 5       Stim-A    T Cells    CD8     1541.
#>  6 Activation_3.fcs 5       Stim-A    T Cells    Va2    18946.
#>  7 Activation_4.fcs 5       Stim-A    T Cells    CD8      567.
#>  8 Activation_4.fcs 5       Stim-A    T Cells    Va2    19885.
#>  9 Activation_5.fcs 50      Stim-A    T Cells    CD8     1074.
#> 10 Activation_5.fcs 50      Stim-A    T Cells    Va2    20104.
#> # ... with 56 more rows

# Compute population frequencies and save to csv file
cyto_stats_compute(gs,
  alias = c("CD4 T Cells", "CD8 T Cells"),
  parent = c("Live Cells", "T Cells"),
  stat = "freq",
  save_as = "Population-Frequencies"
)
#> # A tibble: 132 x 6
#>    name             OVAConc Treatment Population  Parent     Frequency
#>    <chr>            <chr>   <chr>     <chr>       <chr>          <dbl>
#>  1 Activation_1.fcs 0       Stim-A    CD4 T Cells Live Cells      13.3
#>  2 Activation_1.fcs 0       Stim-A    CD8 T Cells Live Cells      16.1
#>  3 Activation_1.fcs 0       Stim-A    CD4 T Cells T Cells         41.2
#>  4 Activation_1.fcs 0       Stim-A    CD8 T Cells T Cells         49.8
#>  5 Activation_2.fcs 0       Stim-A    CD4 T Cells Live Cells      15.0
#>  6 Activation_2.fcs 0       Stim-A    CD8 T Cells Live Cells      18.3
#>  7 Activation_2.fcs 0       Stim-A    CD4 T Cells T Cells         41.2
#>  8 Activation_2.fcs 0       Stim-A    CD8 T Cells T Cells         50.2
#>  9 Activation_3.fcs 5       Stim-A    CD4 T Cells Live Cells      14.9
#> 10 Activation_3.fcs 5       Stim-A    CD8 T Cells Live Cells      18.1
#> # ... with 122 more rows
…
